…
``` r
homicide
```

    ## # A tibble: 52,179 x 12
    ##    uid   reported_date victim_last victim_first victim_race victim_age
    ##    <chr>         <int> <chr>       <chr>        <chr>       <chr>     
    ##  1 Alb-~      20100504 GARCIA      JUAN         Hispanic    78        
    ##  2 Alb-~      20100216 MONTOYA     CAMERON      Hispanic    17        
    ##  3 Alb-~      20100601 SATTERFIELD VIVIANA      White       15        
    ##  4 Alb-~      20100101 MENDIOLA    CARLOS       Hispanic    32        
    ##  5 Alb-~      20100102 MULA        VIVIAN       White       72        
    ##  6 Alb-~      20100126 BOOK        GERALDINE    White       91        
    ##  7 Alb-~      20100127 MALDONADO   DAVID        Hispanic    52        
    ##  8 Alb-~      20100127 MALDONADO   CONNIE       Hispanic    52        
    ##  9 Alb-~      20100130 MARTIN-LEY~ GUSTAVO      White       56        
    ## 10 Alb-~      20100210 HERRERA     ISRAEL       Hispanic    43        
    ## # ... with 52,169 more rows, and 6 more variables: victim_sex <chr>,
    ## #   city <chr>, state <chr>, lat <dbl>, lon <dbl>, disposition <chr>

Create a city\_state variable (e.g. “Baltimore, MD”), and a binary variable indicating whether the homicide is solved. Omit cities Dallas, TX; Phoenix, AZ; and Kansas City, MO – these don’t report victim race. Also omit Tulsa, AL – this is a data entry mistake. Modifiy victim\_race to have categories white and non-white, with white as the reference category. Be sure that victim\_age is numeric.

``` r
homi = homicide %>% 
  unite(city_state, city, state, sep = ", ") %>% # create a 'city_state' variable
  mutate(solved = ifelse(disposition == "Open/No arrest", 0, 1)) %>% # create a binary variable indicating whether homicide is solved (1: Closed without arrest/Closed by arrest; 0: Open/No arrest)
  filter(!(city_state %in% c("Dallas, TX", "Phoenix, AZ", "Kansas City, MO", "Tulsa, AL"))) %>% # omit cities that don't report victim race or is a mistake
  mutate(victim_race = ifelse(victim_race == "White", "white", "non-white")) %>% # modify 'victim_race' to have categories
  mutate(victim_age = suppressWarnings(as.numeric(victim_age)))

homi
```

    ## # A tibble: 48,507 x 12
    ##    uid   reported_date victim_last victim_first victim_race victim_age
    ##    <chr>         <int> <chr>       <chr>        <chr>            <dbl>
    ##  1 Alb-~      20100504 GARCIA      JUAN         non-white           78
    ##  2 Alb-~      20100216 MONTOYA     CAMERON      non-white           17
    ##  3 Alb-~      20100601 SATTERFIELD VIVIANA      white               15
    ##  4 Alb-~      20100101 MENDIOLA    CARLOS       non-white           32
    ##  5 Alb-~      20100102 MULA        VIVIAN       white               72
    ##  6 Alb-~      20100126 BOOK        GERALDINE    white               91
    ##  7 Alb-~      20100127 MALDONADO   DAVID        non-white           52
    ##  8 Alb-~      20100127 MALDONADO   CONNIE       non-white           52
    ##  9 Alb-~      20100130 MARTIN-LEY~ GUSTAVO      white               56
    ## 10 Alb-~      20100210 HERRERA     ISRAEL       non-white           43
    ## # ... with 48,497 more rows, and 6 more variables: victim_sex <chr>,
    ## #   city_state <chr>, lat <dbl>, lon <dbl>, disposition <chr>,
    ## #   solved <dbl>
…
